<?xml version="1.0" encoding="utf-8"?>
<!-- Generator: Adobe Illustrator 23.0.6, SVG Export Plug-In . SVG Version: 6.00 Build 0)  -->
<svg version="1.1" id="Layer_1" xmlns="http://www.w3.org/2000/svg" xmlns:xlink="http://www.w3.org/1999/xlink" x="0px" y="0px"
	 viewBox="0 0 56.26 20" style="enable-background:new 0 0 56.26 20;" xml:space="preserve">
<style type="text/css">
	.st0{fill:#1C1C1C;}
</style>
<path class="st0" d="M25.51,7.14c0,1.11-0.04,1.63-0.31,1.96c-0.25,0.3-0.57,0.45-1.06,0.45h-1.08V4.79h1.08
	c0.49,0,0.82,0.15,1.06,0.45C25.47,5.57,25.51,6.03,25.51,7.14 M26.93,7.14c0-1.1,0.08-2.1-0.74-2.92c-0.48-0.48-1.17-0.7-1.93-0.7
	h-2.63v7.29h2.63c0.76,0,1.44-0.22,1.93-0.69C27.01,9.3,26.93,8.23,26.93,7.14"/>
<polygon class="st0" points="28.14,10.73 32.62,10.73 32.62,9.46 29.46,9.46 29.46,7.69 32.15,7.69 32.15,6.42 29.46,6.42 
	29.46,4.71 32.62,4.71 32.62,3.44 28.14,3.44 "/>
<path class="st0" d="M35.28,5.33c0-0.39,0.33-0.7,0.93-0.7c0.53,0,1.05,0.24,1.52,0.63l0.08,0.07l0.79-1.07L38.53,4.2
	c-0.67-0.58-1.45-0.86-2.29-0.86c-1.36,0-2.35,0.85-2.35,2.11c0,1.21,0.76,1.73,2.11,2.23c1.12,0.41,1.29,0.68,1.29,1.06
	c0,0.45-0.37,0.77-1.01,0.77c-0.71,0-1.27-0.32-1.79-0.78l-0.12-0.12l-0.8,1.09l0.07,0.07c0.79,0.73,1.69,1.05,2.63,1.05
	c1.37,0,2.4-0.83,2.4-2.17c0-1.1-0.66-1.67-1.99-2.18C35.47,6,35.28,5.76,35.28,5.33"/>
<rect x="40.44" y="3.44" class="st0" width="1.42" height="7.29"/>
<path class="st0" d="M48.15,9.97c0.5-0.53,0.69-1.16,0.69-2.22V6.42h-2.75v1.27h1.42v0.45c0,0.4-0.11,0.73-0.33,0.98
	c-0.25,0.28-0.67,0.41-1.09,0.41c-0.39,0-0.7-0.12-0.91-0.38c-0.28-0.34-0.35-0.62-0.35-2.06c0-1.44,0.08-1.71,0.35-2.05
	c0.19-0.21,0.43-0.34,0.72-0.38c0.06-0.01,0.13-0.01,0.2-0.01c0.53,0,1.05,0.24,1.52,0.63l0.09,0.07l0.79-1.06l-0.07-0.07
	c-0.67-0.58-1.45-0.85-2.29-0.85l-0.15,0c-0.73,0.03-1.36,0.31-1.86,0.81c-0.32,0.32-0.51,0.67-0.59,1.1
	c-0.08,0.41-0.13,1.01-0.13,1.81c0,0.8,0.04,1.4,0.13,1.81c0.08,0.41,0.27,0.78,0.59,1.09c0.53,0.53,1.19,0.8,1.97,0.8
	C46.91,10.8,47.58,10.54,48.15,9.97"/>
<polygon class="st0" points="54.45,10.73 55.72,10.73 55.72,3.44 54.3,3.44 54.3,7.9 51.41,3.44 50.14,3.44 50.14,10.73 
	51.56,10.73 51.56,6.26 "/>
<polygon class="st0" points="25.51,19.44 26.93,19.44 26.93,12.15 25.51,12.15 25.51,15.13 23.05,15.13 23.05,12.15 21.62,12.15 
	21.62,19.44 23.05,19.44 23.05,16.39 25.51,16.39 "/>
<path class="st0" d="M32.31,15.77c0,1.41-0.08,1.76-0.36,2.06c-0.2,0.24-0.53,0.4-0.92,0.4c-0.39,0-0.72-0.16-0.93-0.4
	c-0.28-0.31-0.35-0.65-0.35-2.06c0-1.42,0.07-1.76,0.35-2.07c0.21-0.24,0.54-0.39,0.93-0.39c0.39,0,0.71,0.15,0.92,0.39
	C32.22,14.01,32.31,14.35,32.31,15.77 M33.01,18.7c0.74-0.74,0.73-1.66,0.73-2.93c0-1.27,0.01-2.19-0.73-2.94
	c-0.52-0.52-1.15-0.8-1.98-0.8c-0.84,0-1.48,0.29-1.99,0.8c-0.74,0.74-0.72,1.66-0.72,2.94c0,1.27-0.02,2.19,0.72,2.93
	c0.52,0.52,1.16,0.8,1.99,0.8C31.86,19.51,32.49,19.22,33.01,18.7"/>
<polygon class="st0" points="37.57,13.42 39.3,13.42 39.3,12.15 34.41,12.15 34.41,13.42 36.15,13.42 36.15,19.44 37.57,19.44 "/>
<polygon class="st0" points="40.44,19.41 44.92,19.41 44.92,18.14 41.77,18.14 41.77,16.37 44.46,16.37 44.46,15.1 41.77,15.1 
	41.77,13.39 44.92,13.39 44.92,12.12 40.44,12.12 "/>
<polygon class="st0" points="46.51,19.44 50.15,19.44 50.15,18.17 47.93,18.17 47.93,12.15 46.51,12.15 "/>
<path class="st0" d="M52.61,14.05c0-0.39,0.33-0.7,0.92-0.7c0.54,0,1.05,0.24,1.52,0.63l0.08,0.07l0.79-1.07l-0.07-0.06
	c-0.67-0.58-1.45-0.86-2.29-0.86c-1.36,0-2.35,0.86-2.35,2.11c0,1.21,0.76,1.73,2.11,2.23c1.12,0.41,1.29,0.68,1.29,1.06
	c0,0.45-0.37,0.77-1.01,0.77c-0.71,0-1.27-0.32-1.79-0.79l-0.11-0.1l-0.81,1.07l0.07,0.07c0.79,0.73,1.69,1.05,2.63,1.05
	c1.37,0,2.4-0.83,2.4-2.17c0-1.1-0.66-1.67-1.99-2.18C52.8,14.71,52.61,14.47,52.61,14.05"/>
<path class="st0" d="M11.91,14.67c0,0.89-0.55,1.22-1.22,1.22h-0.03c-0.67,0-1.22-0.38-1.22-1.22V7.72c0-0.87,0.55-1.22,1.22-1.22
	h0.03c0.67,0,1.22,0.36,1.22,1.22V14.67z M8.22,14.67c0,0.89-0.55,1.22-1.22,1.22H6.97c-0.67,0-1.22-0.38-1.22-1.22V11.5
	c0-0.87,0.55-1.22,1.22-1.22H7c0.67,0,1.22,0.36,1.22,1.22V14.67z M9.06,2.87c-4.73,0-8.57,3.83-8.57,8.56
	c0,4.74,3.84,8.57,8.57,8.57c4.73,0,8.57-3.84,8.57-8.57C17.63,6.7,13.8,2.87,9.06,2.87"/>
</svg>
