<?xml version="1.0" encoding="utf-8"?>
<!-- Generator: Adobe Illustrator 23.0.6, SVG Export Plug-In . SVG Version: 6.00 Build 0)  -->
<svg version="1.1" id="Layer_1" xmlns="http://www.w3.org/2000/svg" xmlns:xlink="http://www.w3.org/1999/xlink" x="0px" y="0px"
	 viewBox="0 0 79.77 44" style="enable-background:new 0 0 79.77 44;" xml:space="preserve">
<style type="text/css">
	.st0{fill:#1C1C1C;}
</style>
<path class="st0" d="M39.6,30.25c-3.43,0-5.72-0.04-5.72-0.04l-0.49-1.86c0,0,3.13-0.44,6.21-0.44c3.08,0,6.21,0.44,6.21,0.44
	l-0.48,1.86C45.32,30.21,43.04,30.25,39.6,30.25 M48.36,23.27l-0.13-0.04c-0.18,0.26-0.79,0.84-1.72,0.84l-0.05,0.09
	c0.4,0.4,0.31,1.28-0.18,1.28c-0.31,0-0.44-0.26-0.48-0.48l-0.09-0.04c-0.13,0.09-0.48,0.35-0.57,0.44c0,0.27,0.04,0.62,0.09,0.84
	h0.09c0.09-0.18,0.26-0.22,0.35-0.22c0.22,0,0.4,0.18,0.4,0.44c0,0.44-0.31,0.84-0.93,0.84c-0.66,0-1.23-0.31-1.23-1.02
	c0-0.35,0.18-0.75,0.66-0.97v-0.09c-0.35-0.27-0.66-0.71-0.75-0.93h-0.09c-0.13,0.18-0.57,0.57-0.97,0.66v0.09
	c0.35,0.35,0.4,0.71,0.4,0.93c0,0.57-0.49,0.93-1.5,0.93c-0.75,0-1.5-0.22-1.5-0.97c0-0.4,0.26-0.62,0.57-0.62
	c0.22,0,0.48,0.09,0.66,0.35h0.09c0.18-0.22,0.26-0.35,0.57-0.62V24.9c-0.13-0.09-0.35-0.35-0.57-0.66h-0.09
	c-0.31,0.35-0.53,0.4-0.79,0.4c-0.18,0-0.44-0.09-0.44-0.4c0-0.4,0.48-0.58,0.88-0.71v-0.09c-0.66-0.27-1.28-0.97-1.41-1.41h-0.09
	c-0.13,0.44-0.75,1.15-1.41,1.41v0.09c0.4,0.13,0.88,0.31,0.88,0.71c0,0.31-0.27,0.4-0.44,0.4c-0.26,0-0.48-0.04-0.79-0.4h-0.09
	c-0.22,0.31-0.44,0.57-0.57,0.66v0.09c0.31,0.26,0.4,0.4,0.57,0.62h0.09c0.18-0.27,0.44-0.35,0.66-0.35c0.31,0,0.57,0.22,0.57,0.62
	c0,0.75-0.75,0.97-1.5,0.97c-1.01,0-1.5-0.35-1.5-0.93c0-0.22,0.04-0.58,0.4-0.93V24.9c-0.4-0.09-0.84-0.49-0.97-0.66h-0.09
	c-0.09,0.22-0.4,0.66-0.75,0.93v0.09c0.48,0.22,0.66,0.62,0.66,0.97c0,0.71-0.57,1.02-1.23,1.02c-0.62,0-0.92-0.4-0.92-0.84
	c0-0.26,0.18-0.44,0.4-0.44c0.09,0,0.26,0.04,0.35,0.22h0.09c0.04-0.22,0.09-0.58,0.09-0.84c-0.09-0.09-0.44-0.35-0.57-0.44
	l-0.09,0.04c-0.04,0.22-0.18,0.48-0.48,0.48c-0.49,0-0.57-0.88-0.18-1.28l-0.04-0.09c-0.92,0-1.54-0.58-1.72-0.84l-0.13,0.04
	l1.85,4.24c0,0-0.39,0.18-0.31,0.49c0.18,0.62,0.7,1.41,0.7,2.39c0,0.4-0.04,0.44-0.04,0.62c0,0.18,0.13,0.26,0.31,0.26h12.5
	c0.17,0,0.31-0.09,0.31-0.26c0-0.18-0.04-0.22-0.04-0.62c0-0.97,0.53-1.77,0.7-2.39c0.09-0.31-0.31-0.49-0.31-0.49L48.36,23.27z
	 M34.05,8.55c0.04,0.09,0.18,0.18,0.27,0.18c0.17-0.18,0.35-0.4,0.35-0.62C34.45,8.15,34.05,8.24,34.05,8.55 M42.55,6.74l0.13,0.09
	c0,0,0.79-0.35,0.79-0.93c0,0,0-0.31-0.18-0.49c-0.09,0-0.09,0.18-0.09,0.27c0,0.18-0.13,0.31-0.35,0.31
	c-0.18,0-0.48-0.18-0.48-0.48c0-0.31,0.13-0.44,0.13-0.53c0,0,0-0.05-0.04-0.05c-0.71,0.27-0.75,0.58-0.75,0.8
	C41.71,6.03,41.85,6.34,42.55,6.74 M32.91,21.99c2.07,0,2.02-2.39,2.02-3.18c0-3.58,1.06-4.46,3.52-5.61c1.85-0.88,3.52-1.24,3.52-3
	c0-0.62-0.18-1.28-0.88-1.28c0,0,0.26,0.26,0.26,0.71c0,0.18-0.04,0.35-0.13,0.58c0-0.18-0.04-0.4-0.18-0.58
	c-0.22,0.35-0.18,0.88-0.31,1.1c0,0-0.09,0.22-0.7,0.53c0,0-0.09,0.09,0.22,0.09c0,0,0.75,0,1.01-0.31
	c-0.22,0.62-0.48,0.84-0.88,0.84c-0.22,0-0.57-0.05-0.88-0.05c-0.53,0-1.76,0.26-2.25,1.11c-0.35,0.57-1.36,1.1-1.72,1.1
	c-0.31,0-0.75-0.71-0.75-1.02c0-0.35,0.62-0.13,1.1-0.62c0.79-0.8,1.1-0.97,1.94-0.97c0,0,0.48,0,0.04-0.44L36.52,9.7
	c-0.18-0.18-0.31-0.26-0.49-0.26c-0.09,0-0.26,0.04-0.66,0.4c-0.79,0.09-1.1,0.22-1.32,0.35c-0.13,0.09-0.22,0.18-0.31,0.18
	c-0.13,0-0.31-0.71-0.31-0.84c0-0.35,0.4-0.58,0.4-0.8c0-0.13-0.13-0.18-0.13-0.18l-0.57,0.27c0,0-0.31-0.35,0.04-0.53
	c0,0,0.88-0.49,2.55-1.28c0.09,0.49,0.22,0.58,0.62,0.53l-0.18,0.05l-0.09,0.13c0.13,0.04,0.4,0,0.66-0.09
	c0.22-0.09,0.48-0.09,0.53-0.13c0.04-0.05,0.18-0.18,0.18-0.22c-0.09,0-0.35,0.04-0.53,0.09c0.26-0.18,0.4-0.31,0.4-0.4
	c0-0.05-0.04-0.09-0.04-0.09c-0.13,0-0.22,0.09-0.35,0.04c-0.09-0.04-0.18-0.13-0.18-0.26c0-0.09,0.09-0.18,0.4-0.18h0.22
	c0-0.18-0.44-0.27-0.62-0.27c-0.22,0-0.53,0.09-0.79,0.22c0,0,0.04-0.35,0.44-0.53c0.22-0.09,1.36-0.22,2.47-0.22
	c1.58,0,2.77,1.37,2.99,1.37c0.09,0,0.17-0.09,0.04-0.18c-0.57-0.4-0.93-0.71-0.93-1.1c0-0.13,0-0.97,1.81-1.28
	c0.79,0.66,1.06,1.15,1.06,1.59c0,0.75-0.84,0.84-0.93,1.15c2.07,0.13,3.61,2.87,3.61,4.24c0,2.47-2.33,3.49-3.79,3.8
	c2.11-1.59,2.91-3.18,2.91-4.29c0-1.81-1.63-2.87-2.03-3.09c0.93,1.02,1.15,2.08,1.15,2.87c0,1.55-0.97,2.3-0.97,2.3
	C43.96,12.7,44,12.4,44,12.13c0-0.22-0.04-0.4-0.04-0.4c-0.84,1.99-2.77,3.36-2.91,5.04c-0.13-0.4-0.18-0.79-0.18-1.15
	c0-1.41,0.88-2.3,0.88-2.3c-1.72,1.19-2.11,2.56-2.11,3.62c0,1.06,0.44,1.86,0.44,1.86c-0.09-0.4-0.04-1.06,0.04-1.59
	c0.18,1.5,0.93,3.36,3,4.55c-3.61,0-5.11-4.33-3.61-7.07c-2.51,0.66-2.82,3.27-2.86,4.77c-0.18-0.8-0.22-1.41-0.22-1.9
	c0-2.7,2.24-3.4,3.92-4.15c2.47-1.11,3.48-1.99,3.48-3.58c0-1.68-1.98-2.74-3.43-2.43l0.53,0.53c0.09,0.09,0.22,0.18,0.22,0.18
	c1.54,0.8,1.76,1.68,1.76,2.21c0,1.41-1.58,2.17-2.73,2.65c-3.7,1.59-4.36,2.3-4.36,4.6c0,1.68,0.48,4.33-1.28,4.55
	c0.13,0.22,0.75,0.31,0.75,0.31c-0.53,0.44-1.1,0.58-1.76,0.58c-0.62,0-1.85-0.18-2.2-1.5C31.68,21.72,32.16,21.99,32.91,21.99
	 M35.73,12.26c-0.18,0.18-0.35,0.18-0.44,0.18c-0.09-0.22,0-0.53,0-0.53C35.46,11.91,35.73,12.04,35.73,12.26 M35.24,11.69
	c-0.18,0.27-0.31,0.62-0.84,0.62s-0.97-0.4-1.32-0.4c-0.18,0-0.26,0.04-0.35,0.04c-0.09,0-0.13-0.04-0.13-0.09
	c0-0.13,0.18-0.27,0.44-0.27c0.26,0,0.48,0.13,0.88,0.22c0.57,0.18,0.93-0.31,1.14-0.49c0.26-0.22,0.48-0.26,0.7-0.26
	c0.44,0,0.75,0.22,0.75,0.22c-0.22,0-0.71,0.22-1.06,0.44C35.33,11.69,35.29,11.65,35.24,11.69 M34.32,10.36
	c0.09-0.04,0.4-0.09,0.4-0.09c0.09,0.18,0.09,0.49,0.04,0.75C34.36,11.03,34.23,10.63,34.32,10.36 M44.18,5.94
	c1.63,0.35,1.41,1.41,1.72,2.17c-0.7-0.88-1.63-1.46-1.63-1.46C44.36,6.25,44.18,5.94,44.18,5.94 M46.25,14.3
	c0,1.86-2.38,2.08-2.38,3.89c0,0.71,0.22,1.19,0.09,1.64c0,0,0.48-0.53,0.53-0.93c0,1.37,0.7,2.96,2.51,2.96
	c0.26,0,0.66-0.04,1.01-0.27c0,0-0.09,1.28-1.54,1.28c-1.85,0-3.52-1.55-3.52-4.42c0-0.53,0.09-1.15,0.4-1.59
	c0,0-0.88,0.49-0.97,2.03c0,0-0.35-0.53-0.35-1.19C42.02,15.49,44.71,16.28,46.25,14.3 M46.07,23.66c1.63,0,2.46-0.84,2.46-2.12
	c0-0.44-0.13-0.75-0.13-0.75c-0.44,0.35-0.97,0.44-1.28,0.44c-0.66,0-1.54-0.4-1.54-1.46c0-1.37,1.46-2.08,1.46-3.62
	c0-0.44-0.18-0.62-0.18-0.62c0.66-0.88,0.88-1.72,0.88-2.38c0-1.24-0.66-2.03-0.66-2.03l0.71,0.35c-0.31-1.19-0.97-1.99-0.97-1.99
	s0.35,0.18,0.53,0.09C47,9.39,46.47,8.73,46.47,7.53c0-1.19-0.26-1.85-2.55-2.25C43.65,4.75,43.04,4.18,42.73,4
	c-0.53,0.27-1.32,0.57-1.58,0.8c0,0-0.66,0.04-0.92,0.04c-0.4,0-0.7-0.13-0.88-0.13c-0.53,0-0.88,0.53-0.88,0.53
	s-1.19,0.04-2.02,0.22c-0.44,0.09-0.71,0.44-1.01,1.19l-2.16,1.19c-0.4,0.22-0.66,0.35-0.66,0.71c0,0.18,0.13,0.49,0.4,0.88
	c0.22,1.33,0.44,1.55,0.75,1.55c0.09,0,0.26-0.04,0.26-0.04c0.09,0.09,0.31,0.44,0.35,0.57c-0.35,0.18-0.79-0.22-1.32-0.22
	c-0.31,0-0.79,0.18-0.79,0.71c0,0.18,0.09,0.22,0.17,0.22c0.13,0,0.26-0.04,0.57-0.04c0.39,0,0.7,0.35,1.32,0.35
	c0.22,0,0.35-0.05,0.44,0c-0.31,0.22-0.48,0.35-0.4,0.66c0.13,0.57,0.66,1.24,0.93,1.24c0.22,0,0.62-0.13,0.62-0.13l-0.26,0.22
	c-1.76,1.5-1.37,3.18-1.37,4.86c0,1.28-0.35,2.08-1.36,2.08c-0.66,0-1.59-0.4-2.29-1.28c-0.09,0.26-0.13,0.66-0.13,1.01
	c0,1.55,1.41,2.56,2.82,2.56c1.23,0,2.11-0.35,2.99-1.06c2.51-0.04,3.3-1.73,3.3-1.73c1.19,1.73,3.39,1.59,3.74,1.59
	C44.09,23.35,45.24,23.66,46.07,23.66 M38.76,19.91c0,1.37-1.15,1.99-2.33,1.99c1.54-1.68,0.35-4.11,1.85-5.7
	C38.15,17.61,38.76,18.94,38.76,19.91 M37.14,8.59h0.04c0.22,0.84,1.19,0.93,1.41,1.9l-0.04,0.05c-0.48-0.71-1.14-0.8-1.41-1.15
	C37,9.21,37,8.99,37.14,8.59 M41.62,29.1c0,0.05-0.26,0.35-0.31,0.35c-0.04,0-0.31-0.31-0.31-0.35c0-0.09,0.26-0.35,0.31-0.35
	C41.36,28.75,41.62,29.01,41.62,29.1 M45.02,29.19c0,0.04-0.26,0.35-0.31,0.35c-0.04,0-0.31-0.31-0.31-0.35
	c0-0.09,0.27-0.35,0.31-0.35C44.75,28.83,45.02,29.1,45.02,29.19 M43.87,29.81c0.09,0,0.18-0.04,0.18-0.18v-0.97
	c0-0.13-0.09-0.18-0.18-0.18c-0.53-0.05-1.37-0.09-1.72-0.09c-0.13,0-0.22,0.09-0.22,0.22v0.97c0,0.13,0.09,0.22,0.22,0.22H43.87z
	 M40.44,29.85c0.13,0,0.22-0.09,0.22-0.22v-1.06c0-0.13-0.09-0.22-0.22-0.22h-1.67c-0.13,0-0.22,0.09-0.22,0.22v1.06
	c0,0.13,0.09,0.22,0.22,0.22H40.44z M37.58,29.1c0-0.09,0.26-0.35,0.31-0.35c0.04,0,0.31,0.27,0.31,0.35c0,0.05-0.27,0.35-0.31,0.35
	C37.84,29.45,37.58,29.14,37.58,29.1 M34.19,29.19c0-0.09,0.26-0.35,0.31-0.35c0.04,0,0.31,0.27,0.31,0.35
	c0,0.04-0.26,0.35-0.31,0.35C34.45,29.54,34.19,29.23,34.19,29.19 M35.33,29.81h1.72c0.13,0,0.22-0.09,0.22-0.22v-0.97
	c0-0.13-0.09-0.22-0.22-0.22c-0.35,0-1.19,0.04-1.72,0.09c-0.09,0-0.18,0.04-0.18,0.18v0.97C35.15,29.76,35.24,29.81,35.33,29.81
	 M39.16,29.1c0-0.13,0.35-0.49,0.44-0.49c0.04,0,0.4,0.35,0.4,0.49c0,0.05-0.35,0.44-0.4,0.44C39.51,29.54,39.16,29.14,39.16,29.1
	 M42.6,29.1c0-0.13,0.35-0.49,0.44-0.49c0.04,0,0.4,0.35,0.4,0.49c0,0.05-0.35,0.44-0.4,0.44C42.95,29.54,42.6,29.14,42.6,29.1
	 M35.77,29.1c0-0.13,0.35-0.49,0.44-0.49c0.04,0,0.4,0.35,0.4,0.49c0,0.05-0.35,0.44-0.4,0.44C36.12,29.54,35.77,29.14,35.77,29.1"
	/>
<path class="st0" d="M78.09,41.45l-2.61-3.01h-1.75v0.24c0.53,0,0.61,0.07,0.61,0.53v2.51c0,0.9-0.18,0.99-0.63,0.99v0.24h1.62V42.7
	c-0.51,0-0.68-0.11-0.68-0.65v-2.96l3.49,3.97h0.26V39.3c0-0.56,0.3-0.62,0.59-0.62v-0.24h-1.62v0.24c0.41,0,0.71,0.08,0.71,0.61
	V41.45z"/>
<path class="st0" d="M70.84,42.84c-0.84,0-1.22-0.75-1.22-2.16c0-1.41,0.38-2.16,1.22-2.16c0.84,0,1.22,0.75,1.22,2.16
	C72.06,42.09,71.68,42.84,70.84,42.84 M70.84,38.32c-1.2,0-2.44,0.79-2.44,2.37c0,1.58,1.24,2.37,2.44,2.37
	c1.2,0,2.44-0.79,2.44-2.37C73.28,39.1,72.05,38.32,70.84,38.32"/>
<path class="st0" d="M65.04,42.34c0,0.32-0.1,0.36-0.57,0.36v0.24h2.25V42.7c-0.46,0-0.57-0.04-0.57-0.36v-3.45
	c0-0.17,0.08-0.24,0.24-0.24c0.38,0,1.04,0.35,1.41,1.05l0.17-0.06l-0.27-1.32h-0.18c-0.12,0.07-0.29,0.12-0.44,0.12h-2.96
	c-0.08,0-0.16-0.01-0.24-0.03c-0.08-0.03-0.15-0.05-0.21-0.09h-0.18l-0.27,1.32l0.18,0.06c0.37-0.7,1.03-1.05,1.41-1.05
	c0.16,0,0.23,0.07,0.23,0.24V42.34z"/>
<path class="st0" d="M59.65,42.34c0,0.32-0.1,0.36-0.57,0.36v0.24h4.23l0.34-1.31h-0.21c-0.62,0.91-1.02,1.07-2.09,1.07
	c-0.5,0-0.59-0.09-0.59-0.31v-3.35c0-0.32,0.11-0.36,0.57-0.36v-0.24h-2.25v0.24c0.46,0,0.57,0.04,0.57,0.36V42.34z"/>
<path class="st0" d="M55.64,40.56h-0.39v-1.88h0.25c0.92,0,1.15,0.54,1.15,0.94C56.65,40.31,56.17,40.56,55.64,40.56 M57.93,42.24
	l-0.74-1.15c-0.18-0.29-0.35-0.39-0.59-0.4v-0.02c0.72-0.05,1.16-0.42,1.16-0.98c0-0.57-0.51-1.25-1.95-1.25h-2.25v0.24
	c0.46,0,0.57,0.04,0.57,0.36v3.3c0,0.32-0.1,0.36-0.57,0.36v0.24h2.25V42.7c-0.46,0-0.57-0.04-0.57-0.36v-1.57
	c0.47,0,0.64,0.06,0.76,0.29l1.05,1.88h1.54V42.7C58.33,42.7,58.2,42.67,57.93,42.24"/>
<path class="st0" d="M48.96,41.52l0.89-1.89l0.92,1.89H48.96z M52.33,42.21l-1.89-3.65c-0.08-0.14-0.11-0.18-0.15-0.18
	c-0.06,0-0.21,0.36-0.76,0.73c0.08,0.03,0.14,0.12,0.14,0.2c0,0.05-0.01,0.1-0.07,0.22l-1.13,2.37c-0.29,0.61-0.46,0.81-0.89,0.81
	v0.24h1.62V42.7c-0.43,0-0.61-0.12-0.61-0.3c0-0.1,0.05-0.28,0.26-0.62h2.04c0.28,0.43,0.33,0.66,0.33,0.73
	c0,0.15-0.14,0.19-0.61,0.19v0.24h2.43V42.7C52.65,42.7,52.54,42.61,52.33,42.21"/>
<path class="st0" d="M46.77,41.39c-0.39,0.81-0.98,1.43-1.72,1.43c-0.68,0-1.44-0.52-1.44-2.13c0-1.48,0.61-2.13,1.48-2.13
	c0.82,0,1.32,0.55,1.68,1.22h0.18v-1.41h-0.16c-0.07,0.11-0.22,0.18-0.34,0.18c-0.26,0-0.82-0.24-1.48-0.24
	c-1.59,0-2.59,1.06-2.59,2.45c0,1.25,1.02,2.29,2.46,2.29c0.82,0,1.4-0.3,1.6-0.3c0.16,0,0.26,0.1,0.34,0.3h0.16v-1.67H46.77z"/>
<path class="st0" d="M32.96,42.93h3.9l0.47-1.35h-0.18c-0.65,0.87-1.05,1.14-1.7,1.14h-1.1l2.83-4.16v-0.12h-3.84l-0.42,1.26h0.16
	c0.51-0.68,1.05-1.02,1.65-1.02h1.03l-2.8,4.1V42.93z"/>
<path class="st0" d="M29.5,42.34c0,0.32-0.1,0.36-0.56,0.36v0.24h2.25V42.7c-0.46,0-0.57-0.04-0.57-0.36v-3.45
	c0-0.17,0.08-0.24,0.23-0.24c0.38,0,1.04,0.35,1.41,1.05l0.17-0.06l-0.27-1.32h-0.18c-0.12,0.07-0.29,0.12-0.44,0.12h-2.96
	c-0.08,0-0.16-0.01-0.23-0.03c-0.08-0.03-0.15-0.05-0.21-0.09h-0.18l-0.27,1.32l0.18,0.06c0.37-0.7,1.03-1.05,1.41-1.05
	c0.16,0,0.23,0.07,0.23,0.24V42.34z"/>
<path class="st0" d="M25.44,42.34c0,0.32-0.1,0.36-0.57,0.36v0.24h2.25V42.7c-0.46,0-0.56-0.04-0.56-0.36v-3.3
	c0-0.32,0.1-0.36,0.56-0.36v-0.24h-2.25v0.24c0.46,0,0.57,0.04,0.57,0.36V42.34z"/>
<path class="st0" d="M21.33,40.56h-0.39v-1.88h0.25c0.92,0,1.15,0.54,1.15,0.94C22.34,40.31,21.86,40.56,21.33,40.56 M23.62,42.24
	l-0.74-1.15c-0.18-0.29-0.35-0.39-0.58-0.4v-0.02c0.72-0.05,1.16-0.42,1.16-0.98c0-0.57-0.51-1.25-1.95-1.25h-2.24v0.24
	c0.46,0,0.56,0.04,0.56,0.36v3.3c0,0.32-0.1,0.36-0.56,0.36v0.24h2.24V42.7c-0.46,0-0.57-0.04-0.57-0.36v-1.57
	c0.47,0,0.64,0.06,0.76,0.29l1.04,1.88h1.54V42.7C24.02,42.7,23.89,42.67,23.62,42.24"/>
<path class="st0" d="M12.14,42.34c0,0.32-0.11,0.36-0.57,0.36v0.24h4.13l0.35-1.31h-0.21c-0.51,0.84-1.01,1.07-1.91,1.07
	c-0.6,0-0.68-0.09-0.68-0.27v-1.7h0.3c0.81,0,1.17,0.22,1.31,0.86h0.18v-2h-0.18c-0.18,0.66-0.48,0.91-1.31,0.91h-0.3v-1.52
	c0-0.25,0.08-0.29,0.41-0.29c1.01,0,1.49,0.28,2.12,1h0.18l-0.44-1.23h-3.95v0.24c0.46,0,0.57,0.04,0.57,0.36V42.34z"/>
<path class="st0" d="M9.18,42.34c0,0.32-0.1,0.36-0.56,0.36v0.24h2.25V42.7c-0.46,0-0.57-0.04-0.57-0.36v-3.3
	c0-0.32,0.1-0.36,0.57-0.36v-0.24H8.62v0.24c0.46,0,0.56,0.04,0.56,0.36v1.37H6.9v-1.37c0-0.32,0.1-0.36,0.57-0.36v-0.24H5.22v0.24
	c0.46,0,0.57,0.04,0.57,0.36v3.3c0,0.32-0.11,0.36-0.57,0.36v0.24h2.25V42.7c-0.46,0-0.57-0.04-0.57-0.36v-1.62h2.28V42.34z"/>
<path class="st0" d="M1.85,42.34c0,0.32-0.1,0.36-0.57,0.36v0.24h2.25V42.7c-0.46,0-0.56-0.04-0.56-0.36v-3.45
	c0-0.17,0.08-0.24,0.23-0.24c0.38,0,1.04,0.35,1.41,1.05l0.18-0.06l-0.27-1.32H4.33c-0.12,0.07-0.29,0.12-0.44,0.12H0.92
	c-0.08,0-0.16-0.01-0.24-0.03c-0.08-0.03-0.15-0.05-0.21-0.09H0.3l-0.27,1.32L0.2,39.7c0.38-0.7,1.03-1.05,1.41-1.05
	c0.16,0,0.23,0.07,0.23,0.24V42.34z"/>
<polygon class="st0" points="39.4,40.1 38.77,41.01 40.27,41.01 40.9,40.1 "/>
<path class="st0" d="M78.09,41.45l-2.61-3h-1.75v0.24c0.53,0,0.61,0.07,0.61,0.53v2.51c0,0.9-0.18,0.99-0.63,0.99v0.24h1.62v-0.24
	c-0.51,0-0.68-0.11-0.68-0.65v-2.96l3.49,3.97h0.26V39.3c0-0.56,0.29-0.62,0.59-0.62v-0.24h-1.62v0.24c0.41,0,0.71,0.08,0.71,0.61
	V41.45z"/>
<path class="st0" d="M70.84,42.84c-0.83,0-1.22-0.75-1.22-2.16c0-1.41,0.38-2.16,1.22-2.16c0.84,0,1.22,0.75,1.22,2.16
	C72.06,42.09,71.68,42.84,70.84,42.84 M70.84,38.32c-1.2,0-2.44,0.79-2.44,2.37c0,1.58,1.24,2.37,2.44,2.37
	c1.2,0,2.44-0.79,2.44-2.37C73.28,39.1,72.04,38.32,70.84,38.32"/>
<path class="st0" d="M65.03,42.34c0,0.32-0.1,0.36-0.57,0.36v0.24h2.24V42.7c-0.46,0-0.56-0.03-0.56-0.36v-3.45
	c0-0.17,0.08-0.24,0.23-0.24c0.38,0,1.04,0.35,1.41,1.05l0.17-0.06l-0.27-1.32h-0.18c-0.12,0.07-0.29,0.12-0.45,0.12h-2.96
	c-0.08,0-0.16-0.01-0.24-0.04c-0.08-0.03-0.15-0.05-0.21-0.09h-0.18l-0.27,1.32l0.17,0.06c0.38-0.7,1.03-1.05,1.41-1.05
	c0.16,0,0.23,0.07,0.23,0.24V42.34z"/>
<path class="st0" d="M59.64,42.34c0,0.32-0.1,0.36-0.56,0.36v0.24h4.23l0.34-1.31h-0.21c-0.62,0.91-1.02,1.07-2.09,1.07
	c-0.5,0-0.59-0.09-0.59-0.31v-3.35c0-0.32,0.1-0.36,0.57-0.36v-0.24h-2.24v0.24c0.46,0,0.56,0.04,0.56,0.36V42.34z"/>
<path class="st0" d="M55.64,40.56h-0.39v-1.88h0.25c0.92,0,1.15,0.54,1.15,0.94C56.65,40.31,56.17,40.56,55.64,40.56 M57.93,42.24
	l-0.74-1.15c-0.18-0.29-0.35-0.39-0.58-0.4v-0.02c0.72-0.05,1.16-0.42,1.16-0.98c0-0.57-0.51-1.25-1.95-1.25h-2.25v0.24
	c0.46,0,0.57,0.04,0.57,0.36v3.3c0,0.32-0.11,0.36-0.57,0.36v0.24h2.25v-0.24c-0.46,0-0.57-0.03-0.57-0.36v-1.57
	c0.47,0,0.64,0.06,0.76,0.29l1.04,1.88h1.54v-0.24C58.33,42.69,58.2,42.67,57.93,42.24"/>
<path class="st0" d="M48.96,41.52l0.89-1.89l0.92,1.89H48.96z M52.33,42.21l-1.89-3.65c-0.08-0.14-0.11-0.18-0.15-0.18
	c-0.06,0-0.21,0.36-0.76,0.73c0.08,0.04,0.14,0.12,0.14,0.2c0,0.05-0.01,0.1-0.07,0.22l-1.13,2.37c-0.29,0.61-0.46,0.81-0.89,0.81
	v0.24h1.62V42.7c-0.43,0-0.61-0.12-0.61-0.3c0-0.1,0.05-0.28,0.26-0.62h2.03c0.28,0.43,0.33,0.66,0.33,0.73
	c0,0.15-0.14,0.19-0.61,0.19v0.24h2.43V42.7C52.65,42.7,52.54,42.61,52.33,42.21"/>
<path class="st0" d="M46.77,41.39c-0.39,0.81-0.98,1.43-1.73,1.43c-0.68,0-1.43-0.52-1.43-2.13c0-1.48,0.61-2.13,1.48-2.13
	c0.82,0,1.32,0.55,1.68,1.22h0.18v-1.41h-0.16c-0.07,0.11-0.22,0.18-0.34,0.18c-0.26,0-0.82-0.24-1.48-0.24
	c-1.59,0-2.59,1.06-2.59,2.45c0,1.25,1.02,2.29,2.46,2.29c0.82,0,1.4-0.31,1.6-0.31c0.16,0,0.26,0.1,0.34,0.31h0.16v-1.67H46.77z"/>
<path class="st0" d="M32.96,42.93h3.9l0.47-1.35h-0.18c-0.65,0.87-1.05,1.14-1.7,1.14h-1.1l2.83-4.16v-0.12h-3.84l-0.42,1.26h0.16
	c0.51-0.68,1.06-1.02,1.65-1.02h1.03l-2.8,4.1V42.93z"/>
<path class="st0" d="M29.5,42.34c0,0.32-0.1,0.36-0.56,0.36v0.24h2.24V42.7c-0.46,0-0.57-0.03-0.57-0.36v-3.45
	c0-0.17,0.08-0.24,0.23-0.24c0.38,0,1.04,0.35,1.41,1.05l0.17-0.06l-0.27-1.32h-0.18c-0.12,0.07-0.29,0.12-0.44,0.12h-2.96
	c-0.08,0-0.16-0.01-0.24-0.04c-0.08-0.03-0.15-0.05-0.21-0.09h-0.18l-0.27,1.32l0.17,0.06c0.37-0.7,1.03-1.05,1.41-1.05
	c0.16,0,0.23,0.07,0.23,0.24V42.34z"/>
<path class="st0" d="M25.44,42.34c0,0.32-0.1,0.36-0.56,0.36v0.24h2.25V42.7c-0.46,0-0.57-0.03-0.57-0.36v-3.3
	c0-0.32,0.1-0.36,0.57-0.36v-0.24h-2.25v0.24c0.46,0,0.56,0.04,0.56,0.36V42.34z"/>
<path class="st0" d="M21.33,40.56h-0.39v-1.88h0.25c0.92,0,1.15,0.54,1.15,0.94C22.35,40.31,21.87,40.56,21.33,40.56 M23.62,42.24
	l-0.74-1.15c-0.18-0.29-0.35-0.39-0.59-0.4v-0.02c0.72-0.05,1.16-0.42,1.16-0.98c0-0.57-0.5-1.25-1.95-1.25h-2.25v0.24
	c0.46,0,0.57,0.04,0.57,0.36v3.3c0,0.32-0.11,0.36-0.57,0.36v0.24h2.25v-0.24c-0.46,0-0.57-0.03-0.57-0.36v-1.57
	c0.47,0,0.64,0.06,0.76,0.29l1.04,1.88h1.54v-0.24C24.02,42.69,23.89,42.67,23.62,42.24"/>
<path class="st0" d="M12.14,42.34c0,0.32-0.1,0.36-0.56,0.36v0.24h4.13l0.35-1.31h-0.21c-0.5,0.84-1.01,1.07-1.91,1.07
	c-0.6,0-0.68-0.09-0.68-0.27v-1.7h0.3c0.81,0,1.17,0.22,1.31,0.86h0.18v-2h-0.18c-0.18,0.66-0.48,0.91-1.31,0.91h-0.3v-1.52
	c0-0.25,0.08-0.29,0.41-0.29c1.01,0,1.49,0.28,2.12,1h0.18l-0.44-1.23h-3.95v0.24c0.46,0,0.56,0.04,0.56,0.36V42.34z"/>
<path class="st0" d="M9.19,42.34c0,0.32-0.11,0.36-0.57,0.36v0.24h2.25V42.7c-0.46,0-0.57-0.03-0.57-0.36v-3.3
	c0-0.32,0.11-0.36,0.57-0.36v-0.24H8.62v0.24c0.46,0,0.57,0.04,0.57,0.36v1.37H6.91v-1.37c0-0.32,0.11-0.36,0.57-0.36v-0.24H5.23
	v0.24c0.46,0,0.57,0.04,0.57,0.36v3.3c0,0.32-0.1,0.36-0.57,0.36v0.24h2.25V42.7c-0.46,0-0.57-0.03-0.57-0.36v-1.62h2.28V42.34z"/>
<path class="st0" d="M1.85,42.34c0,0.32-0.1,0.36-0.56,0.36v0.24h2.25V42.7c-0.46,0-0.57-0.03-0.57-0.36v-3.45
	c0-0.17,0.08-0.24,0.23-0.24c0.38,0,1.04,0.35,1.41,1.05l0.17-0.06l-0.27-1.32H4.33c-0.12,0.07-0.29,0.12-0.44,0.12H0.93
	c-0.08,0-0.16-0.01-0.23-0.04c-0.08-0.03-0.15-0.05-0.21-0.09H0.3l-0.27,1.32L0.2,39.7c0.38-0.7,1.03-1.05,1.41-1.05
	c0.16,0,0.23,0.07,0.23,0.24V42.34z"/>
<polygon class="st0" points="39.4,40.1 38.77,41.01 40.27,41.01 40.9,40.1 "/>
</svg>
